{
    "StatusList": [
        {
            "goal": "Trust Rating",
            "status": "Complete"
        },
        {
            "goal": "Mass archiving of a user's stuff",
            "status": "Complete"
        },
        {
            "goal": "Let everyone see who trusts someone and how much",
            "status": "Complete"
        },
        {
            "goal": "Change trust rating bar so it is -20% to +100%",
            "status": "Complete"
        },
        {
            "goal": "Let everyone see who is trusted by a user",
            "status": "Complete"
        },
        {
            "goal": "Let everyone see who is highly ranked on the site",
            "status": "In Progress"
        },
        {
            "goal": "Trust Mechanism: Cause and effect",
            "status": "Awaiting"
        },
        {
            "goal": "People suggestions in Onboarding",
            "status": "Awaiting"
        },
        {
            "goal": "Nuke a post and all comments entirely",
            "status": "Awaiting"
        },
        {
            "goal": "See who people are following and who follows them",
            "status": "Complete"
        },
        {
            "goal": "Bell Comment notifications",
            "status": "In Progress"
        },
        {
            "goal": "Declutter notification",
            "status": "Complete"
        },
        {
            "goal": "Have email notifications",
            "status": "Complete"
        },
        {
            "goal": "24 and 72 hour new user emails",
            "status": "In Progress"
        },
        {
            "goal": "Subwiki Moderation",
            "status": "Awaiting"
        },
        {
            "goal": "Moderation Center",
            "status": "Awaiting"
        },
        {
            "goal": "Beginners Guide",
            "status": "Awaiting"
        },
        {
            "goal": "Open source WTS2",
            "status": "Awaiting"
        },
        {
            "goal": "'Follow me' links",
            "status": "Awaiting"
        },
        {
            "goal": "Ability to follow a post",
            "status": "Awaiting"
        },
        {
            "goal": "Newsletter Preferences",
            "status": "Awaiting"
        },
        {
            "goal": "Pinned posts",
            "status": "Awaiting"
        },
        {
            "goal": "Re-posting",
            "status": "Awaiting"
        },
        {
            "goal": "User to user blocking",
            "status": "Awaiting"
        },
        {
            "goal": "Ability to disable collaborative editing",
            "status": "Awaiting"
        },
        {
            "special": "launch",
            "goal": "Launch MVP",
            "status": "Awaiting"
        },
        {
            "goal": "Regional personalisations",
            "status": "Awaiting"
        },
        {
            "goal": "Post/comment/recent changes translation",
            "status": "Awaiting"
        },
        {
            "goal": "Searching",
            "status": "Awaiting"
        },
        {
            "goal": "Video uploads",
            "status": "Awaiting"
        },
        {
            "goal": "OAuth Authorization Code Flow with PKCE",
            "status": "Awaiting"
        }
    ]
}